Lab 4 Whitney Willoz
…
offClean <- offClean %>%
  pivot_longer(Receiving_REC:Passing_INT, names_to = "Stat_type",values_to = "Score")

2.)Obtain the player-level offensive statistics. Namely, for each player and each type of statistics, obtain the sum of the statistics in all games.

playOffStats <- offClean %>%
  group_by(Name, Stat_type) %>% 
  summarize(Stat_sum = sum(Score))

## `summarise()` has grouped output by 'Name'. You can override using the `.groups` argument.

playOffStats

## # A tibble: 176 x 3
## # Groups:   Name [16]
##    Name          Stat_type     Stat_sum
##    <fct>         <chr>            <dbl>
##  1 Akers, Landen Passing_ATT         NA
##  2 Akers, Landen Passing_CMP         NA
##  3 Akers, Landen Passing_INT         NA
##  4 Akers, Landen Passing_TD          NA
##  5 Akers, Landen Passing_YDS         NA
##  6 Akers, Landen Receiving_REC       18
##  7 Akers, Landen Receiving_TD         1
##  8 Akers, Landen Receiving_YDS      269
##  9 Akers, Landen Rushing_ATT         NA
## 10 Akers, Landen Rushing_TD          NA
## # ... with 166 more rows
…
5.)How many players are there from each state?

bioClean %>%
  group_by(State) %>%
  summarize(Players_per_State = n())

## # A tibble: 21 x 2
##    State        Players_per_State
##    <chr>                    <int>
##  1 " Ariz."                     4
##  2 " Ark."                      1
##  3 " Australia"                 1
##  4 " Calif."                    2
##  5 " Fla."                     14
##  6 " Ga."                       3
##  7 " Ill."                      6
##  8 " Iowa"                     42
##  9 " Kan."                      4
## 10 " Mich"                      1
## # ... with 11 more rows
…
